…
</p>

The outputs can also be extracted in `tibble` form using the `extract` function,
once again using the `what` argument to specify whether prevalence or incidence
is extracted.

<p align='center'>

```r
## extract prevalence
extract(output, what = "prevalence")
```

```
## # A tibble: 4,380 × 4
##      day compartment vax          value
##    <dbl> <fct>       <lgl>        <dbl>
##  1     1 S           FALSE 1.00        
##  2     1 E           FALSE 0           
##  3     1 C           FALSE 0.0000000469
##  4     1 H           FALSE 0           
##  5     1 R           FALSE 0           
##  6     1 D           FALSE 0           
##  7     1 S           TRUE  0           
##  8     1 E           TRUE  0           
##  9     1 C           TRUE  0           
## 10     1 H           TRUE  0           
## # ℹ 4,370 more rows
```
…
<p align='center'>

```r
## define start and end days
days_from <- 10
days_to <- 20

## extract prevalence
df <- extract(output, what = "prevalence")
df <- df[df$day %in% seq(days_from, days_to),]
df
```

```
## # A tibble: 132 × 4
##      day compartment vax      value
##    <dbl> <fct>       <lgl>    <dbl>
##  1    10 S           FALSE 1.00e+ 0
##  2    10 E           FALSE 4.30e- 8
##  3    10 C           FALSE 6.82e- 8
##  4    10 H           FALSE 1.33e- 9
##  5    10 R           FALSE 5.26e- 8
##  6    10 D           FALSE 4.17e-11
##  7    10 S           TRUE  0       
##  8    10 E           TRUE  0       
##  9    10 C           TRUE  0       
## 10    10 H           TRUE  0       
## # ℹ 122 more rows
```
…
